{
    "orders": [
        {
            "_id" : 1,
            "orderItems": [],
            "state": "READY_TO_SHIP",
            "datePlaced": "2018-12-20T00:00:00.000Z",
            "deliveryAddress": {
                "city" : {
                    "name" : "brussels",
                    "location" : {
                        "latitude" : 50.8462807,
                        "longitude" : 4.3547273
                    }
                }
            },
            "customer": "20"
        },
        {
            "_id" : 2,
            "orderItems": [],
            "state": "READY_TO_SHIP",
            "datePlaced": "2018-12-22T00:00:00.000Z",
            "deliveryAddress": {
                "city" : {
                    "name" : "tirana",
                    "location" : {
                        "latitude" : 41.33165,
                        "longitude" : 19.8318
                    }
                }
            },
            "customer": "21"
        },
        {
            "_id" : 3,
            "orderItems": [],
            "state": "READY_TO_SHIP",
            "datePlaced": "2018-12-19T00:00:00.000Z",
            "deliveryAddress": {
                "city" : {
                    "name" : "london",
                    "location" : {
                        "latitude" : 51.5001524,
                        "longitude" : -0.1262362
                    }
                }
            },
            "customer": "22"
        },
        {
            "_id" : 4,
            "orderItems": [],
            "state": "READY_TO_SHIP",
            "datePlaced": "2018-12-20T00:00:00.000Z",
            "deliveryAddress": {
                "city" : {
                    "name" : "rome",
                    "location" : {
                        "latitude" : 41.8954656,
                        "longitude" : 12.4823243
                    }
                }
            },
            "customer": "22"
        },
        {
            "_id" : 5,
            "orderItems": [],
            "state": "READY_TO_SHIP",
            "datePlaced": "2018-12-10T00:00:00.000Z",
            "deliveryAddress": {
                "city" : {
                    "name" : "skopje",
                    "location" : {
                        "latitude" : 42.003812,
                        "longitude" : 21.452246
                    }
                }
            },
            "customer": "20"
        },
        {
            "_id" : 6,
            "orderItems": [],
            "state": "READY_TO_SHIP",
            "datePlaced": "2018-12-14T00:00:00.000Z",
            "deliveryAddress": {
                "city" : {
                    "name" : "warsaw",
                    "location" : {
                        "latitude" : 52.2296756,
                        "longitude" : 21.0122287
                    }
                }
            },
            "customer": "21"
        },
        {
            "_id" : 7,
            "orderItems": [],
            "state": "READY_TO_SHIP",
            "datePlaced": "2018-12-24T00:00:00.000Z",
            "deliveryAddress": {
                "city" : {
                    "name" : "bucharest",
                    "location" : {
                        "latitude" : 44.430481,
                        "longitude" : 26.12298
                    }
                }
            },
            "customer": "23"
        },
        {
            "_id" : 8,
            "orderItems": [],
            "state": "READY_TO_SHIP",
            "datePlaced": "2018-12-24T00:00:00.000Z",
            "deliveryAddress": {
                "city" : {
                    "name" : "moscow",
                    "location" : {
                        "latitude" : 55.755786,
                        "longitude" : 37.617633
                    }
                }
            },
            "customer": "24"
        },
        {
            "_id" : 9,
            "orderItems": [],
            "state": "READY_TO_SHIP",
            "datePlaced": "2018-12-25T00:00:00.000Z",
            "deliveryAddress": {
                "city" : {
                    "name" : "edinburgh",
                    "location" : {
                        "latitude" : 55.9501755,
                        "longitude" : -3.1875359
                    }
                }
            },
            "customer": "25"
        },
        {
            "_id" : 10,
            "orderItems": [],
            "state": "READY_TO_SHIP",
            "datePlaced": "2018-12-27T00:00:00.000Z",
            "deliveryAddress": {
                "city" : {
                    "name" : "belgrade",
                    "location" : {
                        "latitude" : 44.802416,
                        "longitude" : 20.465601
                    }
                }
            },
            "customer": "23"
        },
        {
            "_id" : 11,
            "orderItems": [],
            "state": "READY_TO_SHIP",
            "datePlaced": "2018-12-23T00:00:00.000Z",
            "deliveryAddress": {
                "city" : {
                    "name" : "ljubljana",
                    "location" : {
                        "latitude" : 46.0514263,
                        "longitude" : 14.5059655
                    }
                }
            },
            "customer": "26"
        },
        {
            "_id" : 12,
            "orderItems": [],
            "state": "READY_TO_SHIP",
            "datePlaced": "2018-12-20T00:00:00.000Z",
            "deliveryAddress": {
                "city" : {
                    "name" : "stockholm",
                    "location" : {
                        "latitude" : 59.3327881,
                        "longitude" : 18.0644881
                    }
                }
            },
            "customer": "21"
        },
        {
            "_id" : 13,
            "orderItems": [],
            "state": "READY_TO_SHIP",
            "datePlaced": "2018-12-20T00:00:00.000Z",
            "deliveryAddress": {
                "city" : {
                    "name" : "bern",
                    "location" : {
                        "latitude" : 46.9479986,
                        "longitude" : 7.4481481
                    }
                }
            },
            "customer": "26"
        },
        {
            "_id" : 14,
            "orderItems": [],
            "state": "READY_TO_SHIP",
            "datePlaced": "2018-12-20T00:00:00.000Z",
            "deliveryAddress": {
                "city" : {
                    "name" : "cardiff",
                    "location" : {
                        "latitude" : 51.4813069,
                        "longitude" : -3.1804979
                    }
                }
            },
            "customer": "25"
        },
        {
            "_id" : 15,
            "orderItems": [],
            "state": "READY_TO_SHIP",
            "datePlaced": "2018-12-20T00:00:00.000Z",
            "deliveryAddress": {
                "city" : {
                    "name" : "monaco",
                    "location" : {
                        "latitude" : 43.750298,
                        "longitude" : 7.412841
                    }
                }
            },
            "customer": "27"
        },
        {
            "_id" : 16,
            "orderItems": [],
            "state": "READY_TO_SHIP",
            "datePlaced": "2018-12-20T00:00:00.000Z",
            "deliveryAddress": {
                "city" : {
                    "name" : "luxembourg",
                    "location" : {
                        "latitude" : 49.815273,
                        "longitude" : 6.129583
                    }
                }
            },
            "customer": "28"
        },
        {
            "_id" : 17,
            "orderItems": [],
            "state": "READY_TO_SHIP",
            "datePlaced": "2018-12-20T00:00:00.000Z",
            "deliveryAddress": {
                "city" : {
                    "name" : "dublin",
                    "location" : {
                        "latitude" : 53.344104,
                        "longitude" : -6.2674937
                    }
                }
            },
            "customer": "27"
        },
        {
            "_id" : 18,
            "orderItems": [],
            "state": "READY_TO_SHIP",
            "datePlaced": "2018-12-20T00:00:00.000Z",
            "deliveryAddress": {
                "city" : {
                    "name" : "paris",
                    "location" : {
                        "latitude" : 48.8566667,
                        "longitude" : 2.3509871
                    }
                }
            },
            "customer": "29"
        },
        {
            "_id" : 19,
            "orderItems": [],
            "state": "READY_TO_SHIP",
            "datePlaced": "2018-12-20T00:00:00.000Z",
            "deliveryAddress": {
                "city" : {
                    "name": "athens",
                    "location" : {
                        "latitude" : 37.97918,
                        "longitude" : 23.716647
                    }
                }
            },
            "customer": "30"
        },
        {
            "_id" : 20,
            "orderItems": [],
            "state": "READY_TO_SHIP",
            "datePlaced": "2018-12-20T00:00:00.000Z",
            "deliveryAddress": {
                "city" : {
                    "name": "riga",
                    "location" : {
                        "latitude" : 56.9465346,
                        "longitude" : 24.1048525
                    }
                }
            },
            "customer": "31"
        },
        {
            "_id" : 22,
            "orderItems": [],
            "state": "READY_TO_SHIP",
            "datePlaced": "2018-12-20T00:00:00.000Z",
            "deliveryAddress": {
                "city" : {
                    "name" : "vaduz",
                    "location" : {
                        "latitude" : 47.1410409,
                        "longitude" : 9.5214458
                    }
                }
            },
            "customer": "32"
        },
        {
            "_id" : 23,
            "orderItems": [],
            "state": "READY_TO_SHIP",
            "datePlaced": "2018-12-20T00:00:00.000Z",
            "deliveryAddress": {
                "city" : {
                    "name" : "tbilisi",
                    "location" : {
                        "latitude" : 41.709981,
                        "longitude" : 44.792998
                    }
                }
            },
            "customer": "21"
        },
        {
            "_id" : 24,
            "orderItems": [],
            "state": "READY_TO_SHIP",
            "datePlaced": "2018-12-20T00:00:00.000Z",
            "deliveryAddress": {
                "city" : {
                    "name": "porto",
                    "location" : {
                        "latitude" : 41.1621376,
                        "longitude" : -8.6569732
                    }
                }
            },
            "customer": "20"
        }
    ],
    "factories": [
        {
            "_id" : 1,
            "name" : "brussels",
            "location" : {
                "latitude" : 50.8462807,
                "longitude" : 4.3547273
            }
        },
        {
            "_id" : 2,
            "name": "sarajevo",
            "location" : {
                "latitude" : 43.85643,
                "longitude" : 18.41342
            }
        },
        {   
                "_id" : 3,
                "name": "athens",
                "location" : {
                    "latitude" : 37.97918,
                    "longitude" : 23.716647
            }
        },
        {
            "_id" : 4,
            "name": "porto",
            "location" : {
                "latitude" : 41.1621376,
                "longitude" : -8.6569732
            }
        },
        {
            "_id" : 5,
            "name" : "moscow",
            "location" : {
                "latitude" : 55.755786,
                "longitude" : 37.617633
            }
        }   
    ]
  }